Get an Astronomical Solution — get_solution • snvecR
…
#> Warning: ℹ Relying on astrochron to get solution "La11"
#> ℹ We do not cache these results.
#> ! astrochron converts time from -kyr to ka by default.
#>  * Downloading Laskar et al. (2011) astronomical solution: La2011
#> 
#>    Please cite: Laskar, J., Fienga, A., Gastineau, M., Manche, H., 2011,
#>    La2010: A new orbital solution for the long-term motion of the Earth:
#>    Astron. Astrophys., Volume 532, A89.
#>   AND:
#>    Laskar, J., Gastineau, M., Delisle, J.-B., Farres, A., Fienga, A.: 2011,
#>    Strong chaos induced by close encounters with Ceres and Vesta:
#>    Astron. Astrophys., Volume 532, L4.
#>  * Decompressing solution
#> Warning: ℹ Output has column names "Time_ka" and "ecc_LA11"
#> # A tibble: 100,000 × 2
#>    Time_ka ecc_LA11
#>      <dbl>    <dbl>
#>  1       0   0.0167
#>  2       1   0.0172
#>  3       2   0.0175
#>  4       3   0.0178
#>  5       4   0.0182
#>  6       5   0.0185
#>  7       6   0.0187
#>  8       7   0.0189
#>  9       8   0.0192
#> 10       9   0.0193
#> # ℹ 99,990 more rows
…
