Calculate Earth’s Obliquity and Precession in the Past — snvec • snvecR
…
#> • `os_inct` = defaulting to 7.155
#> • `tres` = -0.4 kyr
#> • `atol` = 1e-05
#> • `rtol` = 0
#> • `solver` = "vode"
#> ℹ started at "2025-03-10 13:10:38.682568"
#> Final values:
#> • s[1][2][3]: 0.404184487124565, -0.0537555129057148, and 0.913036138471423
#> • s-error = |s|-1: -5.51290422495798e-05
#> Final values:
#> • obliquity: 0.413060472710089 rad
#> • precession: -0.562357122261026 rad
#> ℹ stopped at "2025-03-10 13:10:39.241282"
#> ℹ total duration: 0.56
#> # A tibble: 2,501 × 5
#>     time   epl    phi   lpx     cp
#>    <dbl> <dbl>  <dbl> <dbl>  <dbl>
#>  1   0   0.409 0      1.80  0.0163
#>  2  -0.4 0.410 0.0975 1.68  0.0168
#>  3  -0.8 0.411 0.195  1.56  0.0171
#>  4  -1.2 0.412 0.292  1.44  0.0170
#>  5  -1.6 0.413 0.389  1.32  0.0168
#>  6  -2   0.414 0.486  1.20  0.0163
#>  7  -2.4 0.414 0.582  1.08  0.0156
#>  8  -2.8 0.415 0.679  0.964 0.0146
#>  9  -3.2 0.416 0.775  0.845 0.0134
#> 10  -3.6 0.417 0.871  0.724 0.0120
#> # ℹ 2,491 more rows
…
