Analyze a grid of Td and Ed values • snvecR
…
In this vignette we show how we would go about using
snvec() for a range of input values.

Create a grid of Td and Ed

We create a grid of input values for Td and Ed. The values in the
grid are based on Zeebe and Lourens 2022 table 2.

biggrid <- expand.grid(Td = c(0, 0.5, 0.7, 0.8, 0.9, 1.0, 1.1, 1.2),
              Ed = c(1.000, 0.998, 1.005, 1.012)) |>
    as_tibble()
    # that's 32 rows
biggrid
#> # A tibble: 32 × 2
#>       Td    Ed
#>    <dbl> <dbl>
#>  1   0   1    
#>  2   0.5 1    
#>  3   0.7 1    
#>  4   0.8 1    
#>  5   0.9 1    
#>  6   1   1    
#>  7   1.1 1    
#>  8   1.2 1    
#>  9   0   0.998
#> 10   0.5 0.998
#> # ℹ 22 more rows
…
We can see the list column sol in this result! But we’d
like to access the raw output, so we use unnest().

expanded <- biggrid |>
  unnest(sol)
expanded
#> # A tibble: 3,200 × 10
#>       Td    Ed    tol  tend       time   age    eei   epl    phi        cp
#>    <dbl> <dbl>  <dbl> <dbl>      <dbl> <dbl>  <dbl> <dbl>  <dbl>     <dbl>
#>  1     0     1 0.0001 -1000 -184451250   505 0.0319 0.407 -2.16  -0.0304  
#>  2     0     1 0.0001 -1000 -186277500   510 0.0290 0.400 -0.932 -0.0115  
#>  3     0     1 0.0001 -1000 -188103750   515 0.0254 0.396  0.317  0.0220  
#>  4     0     1 0.0001 -1000 -189930000   520 0.0212 0.399  1.57   0.0131  
#>  5     0     1 0.0001 -1000 -191756250   525 0.0169 0.407  2.81  -0.0103  
#>  6     0     1 0.0001 -1000 -193582500   530 0.0135 0.417 -2.26  -0.0131  
#>  7     0     1 0.0001 -1000 -195408750   535 0.0121 0.422 -1.07  -0.00388 
#>  8     0     1 0.0001 -1000 -197235000   540 0.0136 0.419  0.115  0.00839 
#>  9     0     1 0.0001 -1000 -199061250   545 0.0171 0.410  1.32   0.0166  
#> 10     0     1 0.0001 -1000 -200887500   550 0.0214 0.399  2.55   0.000531
#> # ℹ 3,190 more rows
…
